code/www.vcd
$date
	Tue May  7 11:27:56 2019
$end
$version
	Icarus Verilog
$end
$timescale
	1ps
$end
$scope module TestBench $end
$var reg 1 ! CLK $end
$var reg 1 " RST $end
$var reg 32 # instruction [31:0] $end
$var reg 32 $ pc [31:0] $end
$var reg 5 % rd [4:0] $end
$var reg 5 & rs [4:0] $end
$var reg 5 ' rt [4:0] $end
$var integer 32 ( count [31:0] $end
$var integer 32 ) end_count [31:0] $end
$var integer 32 * handle [31:0] $end
$var integer 32 + i [31:0] $end
$var integer 32 , k [31:0] $end
$scope module cpu $end
$var wire 1 ! clk_i $end
$var wire 32 - const_32d4 [31:0] $end
$var wire 1 " rst_n $end
$var wire 32 . zero_out [31:0] $end
$var wire 32 / sign_out [31:0] $end
$var wire 32 0 shift_result [31:0] $end
$var wire 2 1 select_slt [1:0] $end
$var wire 1 2 select_dst $end
$var wire 32 3 rtdata_new [31:0] $end
$var wire 32 4 rtdata [31:0] $end
$var wire 32 5 rsdata [31:0] $end
$var wire 5 6 rdaddr [4:0] $end
$var wire 32 7 pc_out [31:0] $end
$var wire 32 8 pc_in [31:0] $end
$var wire 32 9 instr [31:0] $end
$var wire 1 : en_write $end
$var wire 1 ; alusrc $end
$var wire 3 < aluop [2:0] $end
$var wire 1 = alu_zero $end
$var wire 32 > alu_result [31:0] $end
$var wire 1 ? alu_overflow $end
$var wire 4 @ alu_operation [3:0] $end
$var wire 32 A Result [31:0] $end
$scope module AC $end
$var wire 4 B ALU_operation_o [3:0] $end
$var wire 2 C FURslt_o [1:0] $end
$var wire 6 D funct_i [5:0] $end
$var wire 3 E ALUOp_i [2:0] $end
$var reg 4 F ALU_operation [3:0] $end
$var reg 2 G FURslt [1:0] $end
$upscope $end
$scope module ALU $end
$var wire 4 H ALU_operation_i [3:0] $end
$var wire 1 ? overflow $end
$var wire 1 = zero $end
$var wire 32 I aluSrc2 [31:0] $end
$var wire 32 J aluSrc1 [31:0] $end
$var reg 32 K result [31:0] $end
$upscope $end
$scope module ALU_src2Src $end
$var wire 1 ; select_i $end
$var wire 32 L data_o [31:0] $end
$var wire 32 M data1_i [31:0] $end
$var wire 32 N data0_i [31:0] $end
$upscope $end
$scope module Adder1 $end
$var wire 32 O src2_i [31:0] $end
$var wire 32 P sum_o [31:0] $end
$var wire 32 Q src1_i [31:0] $end
$upscope $end
$scope module Decoder $end
$var wire 3 R ALUOp_o [2:0] $end
$var wire 1 2 RegDst_o $end
$var wire 1 : RegWrite_o $end
$var wire 6 S instr_op_i [5:0] $end
$var wire 1 ; ALUSrc_o $end
$var reg 1 2 Dst $end
$var reg 3 T op [2:0] $end
$var reg 1 ; src $end
$var reg 1 U write $end
$upscope $end
$scope module IM $end
$var wire 32 V pc_addr_i [31:0] $end
$var reg 32 W instr_o [31:0] $end
$var integer 32 X i [31:0] $end
$upscope $end
$scope module Mux_Write_Reg $end
$var wire 5 Y data0_i [4:0] $end
$var wire 5 Z data1_i [4:0] $end
$var wire 1 2 select_i $end
$var wire 5 [ data_o [4:0] $end
$upscope $end
$scope module PC $end
$var wire 1 ! clk_i $end
$var wire 32 \ pc_in_i [31:0] $end
$var wire 1 " rst_n $end
$var reg 32 ] pc_out_o [31:0] $end
$upscope $end
$scope module RDdata_Source $end
$var wire 32 ^ data0_i [31:0] $end
$var wire 32 _ data_o [31:0] $end
$var wire 2 ` select_i [1:0] $end
$var wire 32 a data2_i [31:0] $end
$var wire 32 b data1_i [31:0] $end
$var reg 32 c data [31:0] $end
$upscope $end
$scope module RF $end
$var wire 5 d RDaddr_i [4:0] $end
$var wire 32 e RDdata_i [31:0] $end
$var wire 5 f RSaddr_i [4:0] $end
$var wire 32 g RSdata_o [31:0] $end
$var wire 5 h RTaddr_i [4:0] $end
$var wire 32 i RTdata_o [31:0] $end
$var wire 1 : RegWrite_i $end
$var wire 1 ! clk_i $end
$var wire 1 " rst_n $end
$upscope $end
$scope module SE $end
$var wire 16 j data_i [15:0] $end
$var wire 32 k data_o [31:0] $end
$upscope $end
$scope module ZF $end
$var wire 16 l data_i [15:0] $end
$var wire 32 m data_o [31:0] $end
$upscope $end
$scope module shifter $end
$var wire 1 n leftRight $end
$var wire 32 o sftSrc [31:0] $end
$var wire 5 p shamt [4:0] $end
$var wire 32 q result [31:0] $end
$upscope $end
$upscope $end
$upscope $end
$enddefinitions $end
#0
$dumpvars
bx q
bx p
bx o
xn
bx0000000000000000 m
bx l
bx k
bx j
bx i
bx h
bx g
bx f
bx e
bx d
bx c
bx b
bx0000000000000000 a
bx `
bx _
bx ^
bx ]
bx \
bx [
bx Z
bx Y
b100000 X
bx W
bx V
xU
bx T
bx S
bx R
bx Q
bx P
b100 O
bx N
bx M
bx L
bx K
bx J
bx I
bx H
bx G
bx F
bx E
bx D
bx C
bx B
bx A
bx @
x?
bx >
x=
bx <
x;
x:
bx 9
bx 8
bx 7
bx 6
bx 5
bx 4
bx 3
x2
bx 1
bx 0
bx /
bx0000000000000000 .
b100 -
b111 ,
b100000 +
b10 *
b11001 )
b0 (
bx '
bx &
bx %
bx $
b0 #
0"
0!
$end
#5000
0?
b1010 A
b1010 _
b1010 e
b1010 c
0=
b1010 >
b1010 K
b1010 ^
0n
b1010 0
b1010 b
b1010 q
b0 1
b0 C
b0 `
b0 G
b10 @
b10 B
b10 F
b10 H
02
1;
b110 <
b110 E
b110 R
b110 T
1:
1U
b1010 3
b1010 I
b1010 L
b1010 o
b1 6
b1 [
b1 d
b0 p
b10100000000000000000 .
b10100000000000000000 a
b10100000000000000000 m
b1010 l
b1010 /
b1010 M
b1010 k
b1010 j
b1010 D
b110111 S
b0 4
b0 N
b0 i
b1 h
b0 5
b0 J
b0 g
b0 f
b0 Z
b1 Y
b11011100000000010000000000001010 9
b11011100000000010000000000001010 W
b100 8
b100 P
b100 \
b0 7
b0 Q
b0 V
b0 ]
1!
#10000
b1 '
b0 &
b11011100000000010000000000001010 #
b0 ,
b100 $
1"
0!
#15000
b100 A
b100 _
b100 e
b100 c
b100 0
b100 b
b100 q
b100 >
b100 K
b100 ^
b100 3
b100 I
b100 L
b100 o
b10 6
b10 [
b10 d
b1000000000000000000 .
b1000000000000000000 a
b1000000000000000000 m
b100 l
b100 /
b100 M
b100 k
b100 j
b100 D
b10 h
b10 Y
b11011100000000100000000000000100 9
b11011100000000100000000000000100 W
b1000 8
b1000 P
b1000 \
b100 7
b100 Q
b100 V
b100 ]
b0 4
b0 N
b0 i
1!
#20000
b10 '
b1000 $
b11011100000000100000000000000100 #
b1 ,
b1 (
b11111 +
0!
#25000
1=
1n
b11 6
b11 [
b11 d
b0 A
b0 _
b0 e
b0 c
b111 @
b111 B
b111 F
b111 H
12
0;
b10 <
b10 E
b10 R
b10 T
b0 >
b0 K
b0 ^
b11000001000000000000000000000 .
b11000001000000000000000000000 a
b11000001000000000000000000000 m
b1100000100000 l
b1100000100000 /
b1100000100000 M
b1100000100000 k
b1100000100000 j
b100000 D
b111111 S
b1010 5
b1010 J
b1010 g
b1 f
b11 Z
b11111100001000100001100000100000 9
b11111100001000100001100000100000 W
b1100 8
b1100 P
b1100 \
b1000 7
b1000 Q
b1000 V
b1000 ]
b100 4
b100 N
b100 i
1!
#30000
b11 %
b1 &
b1100 $
b11111100001000100001100000100000 #
b10 ,
b10 (
b11111 +
0!
#35000
b1110 A
b1110 _
b1110 e
b1110 c
0=
b1110 >
b1110 K
b1110 ^
0n
b10 @
b10 B
b10 F
b10 H
b100 6
b100 [
b100 d
b100000000100100000000000000000 .
b100000000100100000000000000000 a
b100000000100100000000000000000 m
b10000000010010 l
b10000000010010 /
b10000000010010 M
b10000000010010 k
b10000000010010 j
b10010 D
b100 Z
b11111100001000100010000000010010 9
b11111100001000100010000000010010 W
b10000 8
b10000 P
b10000 \
b1100 7
b1100 Q
b1100 V
b1100 ]
1!
#40000
b100 %
b10000 $
b11111100001000100010000000010010 #
b11 ,
b11 (
b11111 +
0!
#45000
b110 A
b110 _
b110 e
b110 c
b110 >
b110 K
b110 ^
b110 @
b110 B
b110 F
b110 H
b101 6
b101 [
b101 d
b101000000100000000000000000000 .
b101000000100000000000000000000 a
b101000000100000000000000000000 m
b10100000010000 l
b10100000010000 /
b10100000010000 M
b10100000010000 k
b10100000010000 j
b10000 D
b101 Z
b11111100001000100010100000010000 9
b11111100001000100010100000010000 W
b10100 8
b10100 P
b10100 \
b10000 7
b10000 Q
b10000 V
b10000 ]
1!
#50000
b101 %
b10100 $
b11111100001000100010100000010000 #
b100 ,
b100 (
b11111 +
0!
#55000
b0 0
b0 b
b0 q
b11111111111111111111111111111001 A
b11111111111111111111111111111001 _
b11111111111111111111111111111001 e
b11111111111111111111111111111001 c
b1100 @
b1100 B
b1100 F
b1100 H
b0 3
b0 I
b0 L
b0 o
b11111111111111111111111111111001 >
b11111111111111111111111111111001 K
b11111111111111111111111111111001 ^
b101000000101010000000000000000 .
b101000000101010000000000000000 a
b101000000101010000000000000000 m
b10100000010101 l
b10100000010101 /
b10100000010101 M
b10100000010101 k
b10100000010101 j
b10101 D
b0 4
b0 N
b0 i
b0 h
b110 5
b110 J
b110 g
b101 f
b0 Y
b11111100101000000010100000010101 9
b11111100101000000010100000010101 W
b11000 8
b11000 P
b11000 \
b10100 7
b10100 Q
b10100 V
b10100 ]
1!
#60000
b0 '
b101 &
b11000 $
b11111100101000000010100000010101 #
b101 ,
b101 (
b11111 +
0!
#65000
1=
1n
b1 1
b1 C
b1 `
b1 G
b101 @
b101 B
b101 F
b101 H
b0 6
b0 [
b0 d
b0 .
b0 a
b0 m
b0 l
b0 /
b0 M
b0 k
b0 j
b0 D
b0 S
b0 f
b0 Z
b0 A
b0 _
b0 e
b0 c
b0 9
b0 W
b0 >
b0 K
b0 ^
b11100 8
b11100 P
b11100 \
b11000 7
b11000 Q
b11000 V
b11000 ]
b0 5
b0 J
b0 g
1!
#70000
b11001 (
b11111 +
0!
#75000
b100000 8
b100000 P
b100000 \
b11100 7
b11100 Q
b11100 V
b11100 ]
1!
#80000
0!
#85000
b100100 8
b100100 P
b100100 \
b100000 7
b100000 Q
b100000 V
b100000 ]
1!
