code/wwww.vcd
$date
	Mon May  6 15:25:29 2019
$end
$version
	Icarus Verilog
$end
$timescale
	1s
$end
$scope module test $end
$var wire 1 ! leftright $end
$var wire 32 " out [31:0] $end
$var reg 32 # in [31:0] $end
$var reg 5 $ shamt [4:0] $end
$var integer 32 % i [31:0] $end
$scope module sss $end
$var wire 1 ! leftRight $end
$var wire 32 & result [31:0] $end
$var wire 32 ' sftSrc [31:0] $end
$var wire 5 ( shamt [4:0] $end
$upscope $end
$upscope $end
$enddefinitions $end
#0
$dumpvars
b0 (
b11111111111111111111111111111111 '
b11111111111111111111111111111111 &
b1 %
b0 $
b11111111111111111111111111111111 #
b11111111111111111111111111111111 "
1!
$end
#3
b10 %
b11111111111111111111111111111110 "
b11111111111111111111111111111110 &
b1 $
b1 (
#6
b11 %
b11111111111111111111111111111100 "
b11111111111111111111111111111100 &
b10 $
b10 (
#9
b100 %
b11111111111111111111111111111000 "
b11111111111111111111111111111000 &
b11 $
b11 (
#12
b101 %
b11111111111111111111111111110000 "
b11111111111111111111111111110000 &
b100 $
b100 (
#15
b110 %
b11111111111111111111111111100000 "
b11111111111111111111111111100000 &
b101 $
b101 (
#18
b111 %
b11111111111111111111111111000000 "
b11111111111111111111111111000000 &
b110 $
b110 (
#21
b1000 %
b11111111111111111111111110000000 "
b11111111111111111111111110000000 &
b111 $
b111 (
#24
b1001 %
b11111111111111111111111100000000 "
b11111111111111111111111100000000 &
b1000 $
b1000 (
#27
b1010 %
b11111111111111111111111000000000 "
b11111111111111111111111000000000 &
b1001 $
b1001 (
#30
b1011 %
b11111111111111111111110000000000 "
b11111111111111111111110000000000 &
b1010 $
b1010 (
#33
b1100 %
b11111111111111111111100000000000 "
b11111111111111111111100000000000 &
b1011 $
b1011 (
#36
b1101 %
b11111111111111111111000000000000 "
b11111111111111111111000000000000 &
b1100 $
b1100 (
#39
b1110 %
b11111111111111111110000000000000 "
b11111111111111111110000000000000 &
b1101 $
b1101 (
#42
b1111 %
b11111111111111111100000000000000 "
b11111111111111111100000000000000 &
b1110 $
b1110 (
#45
b10000 %
b11111111111111111000000000000000 "
b11111111111111111000000000000000 &
b1111 $
b1111 (
#48
b10001 %
b11111111111111110000000000000000 "
b11111111111111110000000000000000 &
b10000 $
b10000 (
#51
b10010 %
b11111111111111100000000000000000 "
b11111111111111100000000000000000 &
b10001 $
b10001 (
#54
b10011 %
b11111111111111000000000000000000 "
b11111111111111000000000000000000 &
b10010 $
b10010 (
#57
b10100 %
b11111111111110000000000000000000 "
b11111111111110000000000000000000 &
b10011 $
b10011 (
#60
b10101 %
b11111111111100000000000000000000 "
b11111111111100000000000000000000 &
b10100 $
b10100 (
#63
b10110 %
b11111111111000000000000000000000 "
b11111111111000000000000000000000 &
b10101 $
b10101 (
#66
b10111 %
b11111111110000000000000000000000 "
b11111111110000000000000000000000 &
b10110 $
b10110 (
#69
b11000 %
b11111111100000000000000000000000 "
b11111111100000000000000000000000 &
b10111 $
b10111 (
#72
b11001 %
b11111111000000000000000000000000 "
b11111111000000000000000000000000 &
b11000 $
b11000 (
#75
b11010 %
b11111110000000000000000000000000 "
b11111110000000000000000000000000 &
b11001 $
b11001 (
#78
b11011 %
b11111100000000000000000000000000 "
b11111100000000000000000000000000 &
b11010 $
b11010 (
#81
b11100 %
b11111000000000000000000000000000 "
b11111000000000000000000000000000 &
b11011 $
b11011 (
#84
b11101 %
b11110000000000000000000000000000 "
b11110000000000000000000000000000 &
b11100 $
b11100 (
#87
b11110 %
b11100000000000000000000000000000 "
b11100000000000000000000000000000 &
b11101 $
b11101 (
#90
b11111 %
b11000000000000000000000000000000 "
b11000000000000000000000000000000 &
b11110 $
b11110 (
#93
b100000 %
b10000000000000000000000000000000 "
b10000000000000000000000000000000 &
b11111 $
b11111 (
#96
b100001 %
b11111111111111111111111111111111 "
b11111111111111111111111111111111 &
b0 $
b0 (
